<svg width="24" height="24" viewBox="0 0 24 24" fill="none" xmlns="http://www.w3.org/2000/svg">
<path fill-rule="evenodd" clip-rule="evenodd" d="M14.404 4.29289C14.7945 3.90237 15.4277 3.90237 15.8182 4.29289L19.7071 8.18178C20.0976 8.57231 20.0976 9.20547 19.7071 9.596L9.596 19.7071C9.40846 19.8946 9.15411 20 8.88889 20H5C4.44772 20 4 19.5523 4 19V15.1111C4 14.8459 4.10536 14.5915 4.29289 14.404L14.404 4.29289ZM6 15.5253V18H8.47468L17.5858 8.88889L15.1111 6.41421L6 15.5253Z" fill="#000000"/>
</svg>
