<svg width="24" height="24" viewBox="0 0 24 24" fill="none" xmlns="http://www.w3.org/2000/svg">
<path fill-rule="evenodd" clip-rule="evenodd" d="M6.13017 6.13017C6.21352 6.04683 6.32657 6 6.44444 6H15.3889C15.9412 6 16.3889 5.55228 16.3889 5C16.3889 4.44772 15.9412 4 15.3889 4H6.44444C5.79614 4 5.17438 4.25754 4.71596 4.71596C4.25754 5.17438 4 5.79614 4 6.44444V17.5556C4 18.2039 4.25754 18.8256 4.71596 19.284C5.17438 19.7425 5.79614 20 6.44444 20H17.5556C18.2039 20 18.8256 19.7425 19.284 19.284C19.7425 18.8256 20 18.2039 20 17.5556V12.5C20 11.9477 19.5523 11.5 19 11.5C18.4477 11.5 18 11.9477 18 12.5V17.5556C18 17.6734 17.9532 17.7865 17.8698 17.8698C17.7865 17.9532 17.6734 18 17.5556 18H6.44444C6.32657 18 6.21352 17.9532 6.13017 17.8698C6.04683 17.7865 6 17.6734 6 17.5556V6.44444C6 6.32657 6.04683 6.21352 6.13017 6.13017ZM19.711 7.70319C20.0994 7.31051 20.0959 6.67736 19.7032 6.289C19.3105 5.90064 18.6774 5.90413 18.289 6.29681L12.0769 12.5779L10.711 11.1968C10.3226 10.8041 9.68949 10.8006 9.29681 11.189C8.90413 11.5774 8.90064 12.2105 9.289 12.6032L11.3659 14.7032C11.5538 14.8931 11.8098 15 12.0769 15C12.3441 15 12.6001 14.8931 12.7879 14.7032L19.711 7.70319Z" fill="#4A84FB"/>
</svg>
