<svg width="24" height="24" viewBox="0 0 24 24" fill="none" xmlns="http://www.w3.org/2000/svg">
<path fill-rule="evenodd" clip-rule="evenodd" d="M18.7071 7.28575C19.0976 7.66675 19.0976 8.28447 18.7071 8.66547L10.4571 16.7143C10.0666 17.0953 9.43342 17.0953 9.04289 16.7143L5.29289 13.0557C4.90237 12.6747 4.90237 12.057 5.29289 11.676C5.68342 11.295 6.31658 11.295 6.70711 11.676L9.75 14.6447L17.2929 7.28575C17.6834 6.90475 18.3166 6.90475 18.7071 7.28575Z" fill="#1D2639"/>
</svg>
