<svg xmlns="http://www.w3.org/2000/svg" xmlns:xlink="http://www.w3.org/1999/xlink" width="82" height="82" viewBox="0 0 82 82">
    <defs>
        <path id="a" d="M0 .347h81.651V82H.001z"/>
    </defs>
    <g fill="none" fill-rule="evenodd">
        <g transform="translate(0 -.347)">
            <mask id="b" fill="#fff">
                <use xlink:href="#a"/>
            </mask>
            <path fill="#2E4CE6" d="M81.651 41.172C81.651 63.72 63.373 82 40.827 82 18.278 82 0 63.72 0 41.172 0 18.626 18.278.346 40.827.346c22.546 0 40.824 18.28 40.824 40.826" mask="url(#b)"/>
        </g>
        <path fill="#FFC80E" d="M64.93 52.589h-3.665l.016 1.97-1.893 4.583-1.498-5.51-1.528 5.62-1.872-4.692v-1.971H50.827a5.972 5.972 0 0 0-5.97 5.97v4.369H68.86a2.04 2.04 0 0 0 2.04-2.04V58.56a5.971 5.971 0 0 0-5.97-5.971M30.616 52.59H26.95l.014 1.97-1.89 4.583-1.5-5.51-1.528 5.619-1.87-4.692v-1.97h-3.664a5.97 5.97 0 0 0-5.97 5.97v2.328a2.04 2.04 0 0 0 2.041 2.04H36.587V58.56a5.972 5.972 0 0 0-5.97-5.97"/>
        <path fill="#FFCAB3" d="M61.067 40.1c-1.31 0-2.868 1.151-3.652 2.078l.474 9.867c3.473-.032 6.323-4.306 6.73-7.922.031-.29.05-.578.05-.856v-1.489c-.36-.939-2.607-1.678-3.602-1.678"/>
        <path fill="#FFDFD1" d="M63.252 36.717A18.918 18.918 0 0 1 52.424 40.1c-.465 0-.925-.023-1.382-.056a6.869 6.869 0 0 0-.056.83v2.393c0 .278.018.566.051.856.409 3.636 3.292 7.924 6.79 7.924l.063-.002v-4.479c.435 0 .724-.416.724-.807v-4.417s.092-.118.252-.29c.457-.486 1.473-1.42 2.557-1.42 2.246 0 3.246 1.146 3.246 1.146v-.905a6.79 6.79 0 0 0-1.417-4.156"/>
        <path fill="#3C3C3B" d="M65.231 35.143a8.95 8.95 0 0 0-16.293 5.118v1.792c0 1.14.92 2.063 2.058 2.07h.041a7.365 7.365 0 0 1-.05-.855v-2.395c0-.281.021-.557.055-.83.457.035.917.058 1.381.058 4.029 0 7.76-1.252 10.834-3.386l-.005.003a6.796 6.796 0 0 1 1.417 4.155v2.395c0 .278-.019.565-.05.855h.165a2.07 2.07 0 0 0 2.057-2.07V40.26a8.9 8.9 0 0 0-1.61-5.118"/>
        <path fill="#FFF" d="M61.265 54.56v-1.971h-.005a5.935 5.935 0 0 1-3.37 1.044l1.498 5.51 1.173-2.84.72-1.743h-.016z"/>
        <path fill="#FFCAB3" d="M26.755 40.1c-1.312 0-2.87 1.151-3.655 2.078l.474 9.867c3.472-.032 6.322-4.306 6.729-7.922a7.4 7.4 0 0 0 .052-.856v-1.489c-.362-.94-2.61-1.678-3.6-1.678"/>
        <path fill="#FFDFD1" d="M28.94 36.718A18.938 18.938 0 0 1 18.11 40.1c-.468 0-.925-.023-1.384-.055a6.84 6.84 0 0 0-.054.828v2.394c0 .279.017.566.052.856.407 3.636 3.29 7.924 6.788 7.924l.063-.002v-4.48c.436 0 .724-.414.724-.805v-4.418s.091-.117.253-.29c.454-.486 1.47-1.42 2.556-1.42 2.247 0 3.247 1.147 3.247 1.147v-.906a6.805 6.805 0 0 0-1.416-4.155"/>
        <path fill="#3C3C3B" d="M30.916 35.142a8.943 8.943 0 0 0-7.342-3.833c-4.78 0-8.686 3.75-8.937 8.47a8.574 8.574 0 0 0-.013.482v1.792a2.07 2.07 0 0 0 2.057 2.07h.043a7.184 7.184 0 0 1-.052-.856v-2.394c0-.28.02-.557.054-.829.46.033.917.056 1.383.056 4.027 0 7.76-1.25 10.832-3.385l-.002.003a6.805 6.805 0 0 1 1.415 4.155v2.395c0 .277-.017.564-.05.855h.164a2.071 2.071 0 0 0 2.058-2.07v-1.792a8.898 8.898 0 0 0-1.61-5.119"/>
        <path fill="#FFF" d="M20.205 52.59h-.03v1.97l.705 1.767 1.166 2.925 1.528-5.62a5.949 5.949 0 0 1-3.369-1.042M44.683 53.138l-3.945-3.945 2.215 8.138z"/>
        <path fill="#E2E3E4" d="M36.757 53.173l1.722 4.32 2.258-8.3z"/>
        <path fill="#F9B59D" d="M45.433 29.205c-1.937 0-4.236 1.7-5.396 3.07l.7 14.573c5.127-.047 9.338-6.36 9.938-11.7.049-.43.076-.854.076-1.267v-2.197c-.533-1.389-3.851-2.479-5.318-2.479"/>
        <path fill="#FFCAB3" d="M48.661 24.207a27.95 27.95 0 0 1-15.994 4.998c-.689 0-1.368-.033-2.045-.083-.048.402-.08.809-.08 1.224v3.535c0 .413.027.837.076 1.266.603 5.369 4.86 11.703 10.028 11.703l.091-.002v-6.615c.645 0 1.07-.614 1.07-1.192v-6.524s.136-.175.374-.428c.674-.719 2.173-2.098 3.777-2.098 3.318 0 4.793 1.693 4.793 1.693v-1.338c0-2.312-.784-4.436-2.09-6.139"/>
        <path fill="#1E1E1E" d="M51.58 21.882a13.202 13.202 0 0 0-10.843-5.661c-7.06 0-12.83 5.539-13.2 12.509-.014.235-.02.474-.02.713v2.647a3.058 3.058 0 0 0 3.04 3.058h.061a11.21 11.21 0 0 1-.077-1.267v-3.535c0-.415.033-.821.081-1.224.676.05 1.356.083 2.045.083a27.944 27.944 0 0 0 15.996-5s0 .002-.002.002a10.051 10.051 0 0 1 2.09 6.139v3.535c0 .414-.027.837-.076 1.267h.244a3.057 3.057 0 0 0 3.04-3.058v-2.647c0-2.812-.88-5.418-2.379-7.561"/>
        <path fill="#FFF" d="M35.76 47.652h-.044v2.91l1.04 2.61 3.982-3.98a8.769 8.769 0 0 1-4.977-1.54"/>
        <path fill="#E2E3E4" d="M45.745 50.562h-.022v-2.91h-.007a8.773 8.773 0 0 1-4.979 1.54l3.946 3.947 1.062-2.578z"/>
        <path fill="#313131" d="M51.138 47.652h-5.413l.02 2.91-2.793 6.769-2.214-8.138-2.26 8.299-2.762-6.93-4.103 4.103 8.257 8.259h20.085V56.47a8.817 8.817 0 0 0-8.817-8.818M35.716 47.652h-2.91l2.91 2.91z"/>
        <path fill="#6D6D6D" d="M31.612 54.665l4.104-4.104-2.91-2.909h-2.501a8.819 8.819 0 0 0-8.818 8.818v6.454H39.87l-8.258-8.259z"/>
        <path fill="#010307" d="M43.005 51.46l-2.268 2.267-2.267-2.267 2.267-2.267z"/>
    </g>
</svg>
