<svg xmlns="http://www.w3.org/2000/svg" width="16" height="18" viewBox="0 0 16 18">
    <g fill="#D0D6F5" fill-rule="nonzero">
        <path d="M14.808 2.078h-1.306v-.891C13.502.53 12.971 0 12.315 0h-.047c-.656 0-1.187.531-1.187 1.187v.891H4.956v-.891C4.956.53 4.425 0 3.769 0h-.047c-.656 0-1.187.531-1.187 1.187v.891H1.229c-.656 0-1.187.532-1.187 1.187v12.724c0 .656.531 1.187 1.187 1.187h13.579c.655 0 1.187-.531 1.187-1.187V3.265c0-.655-.532-1.187-1.187-1.187zM14 15.301H2.036V5.663H14V15.3z"/>
        <path d="M3.662 10.024h2.065a.19.19 0 0 0 .19-.19V7.77a.19.19 0 0 0-.19-.19H3.662a.19.19 0 0 0-.19.19v2.065c0 .105.085.19.19.19zM6.986 10.024H9.05a.19.19 0 0 0 .19-.19V7.77a.19.19 0 0 0-.19-.19H6.986a.19.19 0 0 0-.19.19v2.065c0 .105.085.19.19.19zM10.31 10.024h2.064a.19.19 0 0 0 .19-.19V7.77a.19.19 0 0 0-.19-.19H10.31a.19.19 0 0 0-.19.19v2.065c0 .105.085.19.19.19zM3.662 13.348h2.065a.19.19 0 0 0 .19-.19v-2.065a.19.19 0 0 0-.19-.19H3.662a.19.19 0 0 0-.19.19v2.065c0 .105.085.19.19.19zM6.986 13.348H9.05a.19.19 0 0 0 .19-.19v-2.065a.19.19 0 0 0-.19-.19H6.986a.19.19 0 0 0-.19.19v2.065c0 .105.085.19.19.19zM10.31 13.348h2.064a.19.19 0 0 0 .19-.19v-2.065a.19.19 0 0 0-.19-.19H10.31a.19.19 0 0 0-.19.19v2.065c0 .105.085.19.19.19z"/>
    </g>
</svg>
