<svg xmlns="http://www.w3.org/2000/svg" width="11" height="11" viewBox="0 0 11 11">
    <path fill="#AAACB4" fill-rule="evenodd" d="M5.5 4.793L10.096.197a.5.5 0 1 1 .707.707L6.207 5.5l4.596 4.596a.5.5 0 1 1-.707.707L5.5 6.207.904 10.803a.5.5 0 1 1-.707-.707L4.793 5.5.197.904A.5.5 0 1 1 .904.197L5.5 4.793z" opacity=".6"/>
</svg>
