<svg xmlns="http://www.w3.org/2000/svg" width="16" height="16" viewBox="4 4 16 16">
    <g fill="none" fill-rule="evenodd">
        <path fill="#D0D6F5" d="M9.614 13.126l-.649.644a.45.45 0 0 1-.649 0l-1.158-1.15A3.844 3.844 0 0 1 6 9.863C6 7.747 7.76 6 9.892 6c1.019 0 2.038.414 2.78 1.15l1.158 1.149a.442.442 0 0 1 0 .644l-.65.643a.45.45 0 0 1-.648 0l-1.158-1.15a2.04 2.04 0 0 0-1.436-.597c-1.112 0-2.039.92-2.039 2.023 0 .552.232 1.058.603 1.425l1.158 1.15c.093.23.093.506-.046.69zm.231-2.62l.649-.644a.45.45 0 0 1 .648 0l3.058 3.035a.442.442 0 0 1 0 .643l-.648.644a.45.45 0 0 1-.649 0l-3.058-3.035a.442.442 0 0 1 0-.643zM14.154 18a3.984 3.984 0 0 1-2.78-1.15l-1.158-1.149a.442.442 0 0 1 0-.644l.649-.643a.45.45 0 0 1 .648 0l1.158 1.15c.37.367.88.597 1.437.597 1.111 0 2.038-.92 2.038-2.023a2.01 2.01 0 0 0-.602-1.425l-1.159-1.15a.442.442 0 0 1 0-.643l.65-.644a.45.45 0 0 1 .648 0l1.158 1.15a3.844 3.844 0 0 1 1.158 2.758C18.045 16.253 16.285 18 14.154 18z"/>
    </g>
</svg>
