<svg xmlns="http://www.w3.org/2000/svg" width="24" height="24" viewBox="0 0 24 24">
    <g fill="none" fill-rule="evenodd" stroke="#2E4CE6" transform="translate(1 1)">
        <path d="M15 11l-4 4-4-4M11 7v8"/>
        <circle cx="11" cy="11" r="11"/>
    </g>
</svg>
