<svg xmlns="http://www.w3.org/2000/svg" xmlns:xlink="http://www.w3.org/1999/xlink" width="22" height="18" viewBox="0 0 22 18">
    <defs>
        <path id="a" d="M.264 4.592L7.986.073a.533.533 0 0 1 .803.46l.002 2.04.021.006a21.787 21.787 0 0 1 3.237 1.159c.84.368 1.66.844 2.44 1.414.557.407 1.081.876 1.558 1.395 1.297 1.412 2.008 3.287 1.95 5.144-.01.325-.047.637-.081.9a.533.533 0 0 1-1.054.023c-.144-.811-.373-1.478-.7-2.038a5.03 5.03 0 0 0-1.609-1.699 7.393 7.393 0 0 0-1.784-.83c-.756-.239-1.59-.389-2.549-.458a19.248 19.248 0 0 0-1.403-.043L8.816 9.47a.533.533 0 0 1-.798.463L.27 5.515a.533.533 0 0 1-.005-.923z"/>
    </defs>
    <g fill="none" fill-rule="nonzero" transform="matrix(-1 0 0 1 20 2)">
        <use fill="#2E4CE6" fill-rule="evenodd" xlink:href="#a"/>
        <path stroke="#FFF" stroke-width="2" d="M9.79 1.821c.83.249 1.678.568 2.662 1 .906.399 1.79.911 2.627 1.523.61.447 1.184.96 1.704 1.527 1.473 1.602 2.28 3.73 2.213 5.85a9.7 9.7 0 0 1-.089 1 1.534 1.534 0 0 1-1.487 1.333h-.033c-.744 0-1.38-.533-1.51-1.266-.124-.7-.315-1.256-.578-1.707a4.032 4.032 0 0 0-1.285-1.361A6.394 6.394 0 0 0 12.468 9c-.678-.214-1.435-.35-2.32-.414a14.03 14.03 0 0 0-.332-.02v.905a1.533 1.533 0 0 1-2.293 1.33l-7.75-4.417A1.533 1.533 0 0 1-.24 3.73L7.48-.79A1.534 1.534 0 0 1 9.789.532l.001 1.289z"/>
    </g>
</svg>
