<?xml version="1.0" encoding="UTF-8"?>
<svg width="80px" height="80px" viewBox="0 0 80 80" version="1.1" xmlns="http://www.w3.org/2000/svg" xmlns:xlink="http://www.w3.org/1999/xlink">
    <!-- Generator: sketchtool 49.1 (51147) - http://www.bohemiancoding.com/sketch -->
    <title>73474E78-9BC9-4370-B01C-565524790B49</title>
    <desc>Created with sketchtool.</desc>
    <defs>
        <circle id="path-1" cx="40" cy="40" r="40"></circle>
    </defs>
    <g id="User" stroke="none" stroke-width="1" fill="none" fill-rule="evenodd">
        <g id="25-courses-shop-view" transform="translate(-680.000000, -1464.000000)">
            <g id="Group-6" transform="translate(560.000000, 1391.000000)">
                <g id="done" transform="translate(120.000000, 73.000000)">
                    <g id="Mask">
                        <use fill="#FFFFFF" fill-rule="evenodd" xlink:href="#path-1"></use>
                        <circle stroke="#2E4CE6" stroke-width="4" cx="40" cy="40" r="38"></circle>
                    </g>
                    <polyline id="Path-7" stroke="#2E4CE6" stroke-width="4" points="25 38.174692 36.3904338 50 55 30"></polyline>
                </g>
            </g>
        </g>
    </g>
</svg>